{
    "name": "UnityUIExtensions-Editor",
    "references": [
        "UnityUIExtensions"
    ],
    "optionalUnityReferences": [],
    "includePlatforms": [
        "Editor"
    ],
    "excludePlatforms": [],
    "allowUnsafeCode": false,
    "overrideReferences": false,
    "precompiledReferences": [],
    "autoReferenced": true,
    "defineConstraints": []
}